…
    ## `summarise()` regrouping output by 'clean_beds' (override with `.groups` argument)

``` r
med_by_month %>% select(listing_month, median_rent)
```

    ## Simple feature collection with 38 features and 2 fields
    ## geometry type:  MULTIPOINT
    ## dimension:      XY
    ## bbox:           xmin: -78.90302 ymin: 42.10337 xmax: -76.03615 ymax: 42.93978
    ## geographic CRS: WGS 84
    ## # A tibble: 38 x 3
    ##    listing_month median_rent                                            geometry
    ##            <dbl>       <dbl>                                    <MULTIPOINT [°]>
    ##  1             2         925 ((-76.49886 42.43735), (-76.494 42.42955), (-76.49…
    ##  2             3         925 ((-76.50153 42.43563), (-76.50043 42.44837), (-76.…
    ##  3             4        1143 ((-76.66258 42.54207), (-76.52865 42.46008), (-76.…
    ##  4             5        1242 ((-76.67021 42.44205), (-76.52865 42.46008), (-76.…
    ##  5             1        1227 ((-78.90302 42.93978), (-76.52861 42.46004), (-76.…
    ##  6             2        1200 ((-78.90302 42.93978), (-76.66299 42.54206), (-76.…
    ##  7             3        1199 ((-76.68798 42.29159), (-76.66191 42.54604), (-76.…
    ##  8             4        1107 ((-76.72492 42.61949), (-76.68798 42.29159), (-76.…
    ##  9             5        1050 ((-76.86736 42.38024), (-76.66191 42.54604), (-76.…
    ## 10             1        1415 ((-76.54294 42.46598), (-76.53559 42.46468), (-76.…
    ## # … with 28 more rows
…
